…
               values_to = "Fraction") %>%
  mutate(Population = factor(
    case_when(startsWith(Treatment, "A") & Fluorescence == "Yellow" ~ "plaCM",
              startsWith(Treatment, "A") & Fluorescence == "Red" ~ "chrCM",
              startsWith(Treatment, "C") & Fluorescence == "Yellow" ~ "chrCM",
              startsWith(Treatment, "C") & Fluorescence == "Red" ~ "plaCM",
              Fluorescence == "Orange" ~ "double / clumped",
              Fluorescence == "Blue" ~ "none"),
    levels=c("double / clumped", "chrCM", "plaCM", "none")),
         Selection = ifelse(endsWith(Treatment, "M"), "Yes", "No"),
         Markers = ifelse(startsWith(Treatment, "A"), "Red / Yellow",
                          "Yellow / Red")))
```

    ## # A tibble: 1,360 × 11
    ##    Treatment Replicate Transfer Total_count Experiment Ratio Fluorescence
    ##    <chr>         <int>    <int>       <int>      <int> <dbl> <chr>       
    ##  1 AM                4        3        4540          1    NA Yellow      
    ##  2 AM                4        3        4540          1    NA Red         
    ##  3 AM                4        3        4540          1    NA Orange      
    ##  4 AM                4        3        4540          1    NA Blue        
    ##  5 A                 5        3        4764          1    NA Yellow      
    ##  6 A                 5        3        4764          1    NA Red         
    ##  7 A                 5        3        4764          1    NA Orange      
    ##  8 A                 5        3        4764          1    NA Blue        
    ##  9 AM                5        3        3618          1    NA Yellow      
    ## 10 AM                5        3        3618          1    NA Red         
    ## # ℹ 1,350 more rows
    ## # ℹ 4 more variables: Fraction <dbl>, Population <fct>, Selection <chr>,
    ## #   Markers <chr>
…
               values_to = "Fraction") %>%
  mutate(Population = factor(
    case_when(startsWith(Treatment, "B") & Fluorescence == "Yellow" ~ "plaCM",
              startsWith(Treatment, "B") & Fluorescence == "Red" ~ "chrCM",
              startsWith(Treatment, "D") & Fluorescence == "Yellow" ~ "chrCM",
              startsWith(Treatment, "D") & Fluorescence == "Red" ~ "plaCM",
              Fluorescence == "Orange" ~ "double / clumped",
              Fluorescence == "Blue" ~ "pQBR103 only"),
    levels=c("double / clumped", "chrCM", "plaCM", "pQBR103 only")),
         Selection = ifelse(endsWith(Treatment, "M"), "Yes", "No"),
         Markers = ifelse(startsWith(Treatment, "B"), "Red / Yellow",
                          "Yellow / Red")))
```

    ## # A tibble: 1,360 × 11
    ##    Treatment Replicate Transfer Total_count Experiment Ratio Fluorescence
    ##    <chr>         <int>    <int>       <int>      <int> <dbl> <chr>       
    ##  1 BM                4        3        5392          1    NA Yellow      
    ##  2 BM                4        3        5392          1    NA Red         
    ##  3 BM                4        3        5392          1    NA Orange      
    ##  4 BM                4        3        5392          1    NA Blue        
    ##  5 B                 5        3        5117          1    NA Yellow      
    ##  6 B                 5        3        5117          1    NA Red         
    ##  7 B                 5        3        5117          1    NA Orange      
    ##  8 B                 5        3        5117          1    NA Blue        
    ##  9 BM                5        3        4241          1    NA Yellow      
    ## 10 BM                5        3        4241          1    NA Red         
    ## # ℹ 1,350 more rows
    ## # ℹ 4 more variables: Fraction <dbl>, Population <fct>, Selection <chr>,
    ## #   Markers <chr>
…
  filter(Experiment == 2 & Treatment == "A") %>%
  pivot_longer(starts_with("Fraction"), names_to = "Fluorescence", names_prefix = "Fraction_",
               values_to = "Fraction") %>%
  mutate(Population = factor(
    case_when(Fluorescence == "Yellow" ~ "plaCM",
              Fluorescence == "Red" ~ "chrCM",
              Fluorescence == "Orange" ~ "double / clumped",
              Fluorescence == "Blue" ~ "none"),
    levels=c("double / clumped", "chrCM", "plaCM", "none")),
         Ratio = factor(Ratio,
                        levels=c(10, 1, 0.1, 0),
                        labels=c("10:1", "1:1", "1:10", "none"))))
```

    ## # A tibble: 864 × 9
    ##    Treatment Replicate Transfer Total_count Experiment Ratio Fluorescence
    ##    <chr>         <int>    <int>       <int>      <int> <fct> <chr>       
    ##  1 A                 1        2       11885          2 10:1  Yellow      
    ##  2 A                 1        2       11885          2 10:1  Red         
    ##  3 A                 1        2       11885          2 10:1  Orange      
    ##  4 A                 1        2       11885          2 10:1  Blue        
    ##  5 A                 5        2       13219          2 1:10  Yellow      
    ##  6 A                 5        2       13219          2 1:10  Red         
    ##  7 A                 5        2       13219          2 1:10  Orange      
    ##  8 A                 5        2       13219          2 1:10  Blue        
    ##  9 A                 6        2       12609          2 10:1  Yellow      
    ## 10 A                 6        2       12609          2 10:1  Red         
    ## # ℹ 854 more rows
    ## # ℹ 2 more variables: Fraction <dbl>, Population <fct>
…
  filter(Experiment == 2 & Treatment == "B") %>%
  pivot_longer(starts_with("Fraction"), names_to = "Fluorescence", names_prefix = "Fraction_",
               values_to = "Fraction") %>%
  mutate(Population = factor(
    case_when(Fluorescence == "Yellow" ~ "plaCM",
              Fluorescence == "Red" ~ "pQBR57 (wild-type) starting in chrCM",
              Fluorescence == "Orange" ~ "double / clumped",
              Fluorescence == "Blue" ~ "none"),
    levels=c("double / clumped", "pQBR57 (wild-type) starting in chrCM", "plaCM", "none")),
         Ratio = factor(Ratio,
                        levels=c(10, 1, 0.1, 0),
                        labels=c("10:1", "1:1", "1:10", "none")))) 
```

    ## # A tibble: 864 × 9
    ##    Treatment Replicate Transfer Total_count Experiment Ratio Fluorescence
    ##    <chr>         <int>    <int>       <int>      <int> <fct> <chr>       
    ##  1 B                 1        2       12255          2 10:1  Yellow      
    ##  2 B                 1        2       12255          2 10:1  Red         
    ##  3 B                 1        2       12255          2 10:1  Orange      
    ##  4 B                 1        2       12255          2 10:1  Blue        
    ##  5 B                 5        2       14021          2 1:10  Yellow      
    ##  6 B                 5        2       14021          2 1:10  Red         
    ##  7 B                 5        2       14021          2 1:10  Orange      
    ##  8 B                 5        2       14021          2 1:10  Blue        
    ##  9 B                 6        2       14816          2 10:1  Yellow      
    ## 10 B                 6        2       14816          2 10:1  Red         
    ## # ℹ 854 more rows
    ## # ℹ 2 more variables: Fraction <dbl>, Population <fct>
…
  filter(Experiment == 2 & Treatment == "C") %>%
  pivot_longer(starts_with("Fraction"), names_to = "Fluorescence", names_prefix = "Fraction_",
               values_to = "Fraction") %>%
  mutate(Population = factor(
    case_when(Fluorescence == "Yellow" ~ "plaCM",
              Fluorescence == "Red" ~ "pQBR57 (wild-type) starting in uncompensated",
              Fluorescence == "Orange" ~ "double / clumped",
              Fluorescence == "Blue" ~ "none"),
    levels=c("double / clumped", "pQBR57 (wild-type) starting in uncompensated", "plaCM", "none")),
         Ratio = factor(Ratio,
                        levels=c(10, 1, 0.1, 0),
                        labels=c("10:1", "1:1", "1:10", "none")))) 
```

    ## # A tibble: 864 × 9
    ##    Treatment Replicate Transfer Total_count Experiment Ratio Fluorescence
    ##    <chr>         <int>    <int>       <int>      <int> <fct> <chr>       
    ##  1 C                 1        2       11866          2 10:1  Yellow      
    ##  2 C                 1        2       11866          2 10:1  Red         
    ##  3 C                 1        2       11866          2 10:1  Orange      
    ##  4 C                 1        2       11866          2 10:1  Blue        
    ##  5 C                 5        2       14095          2 1:10  Yellow      
    ##  6 C                 5        2       14095          2 1:10  Red         
    ##  7 C                 5        2       14095          2 1:10  Orange      
    ##  8 C                 5        2       14095          2 1:10  Blue        
    ##  9 C                 6        2       14547          2 10:1  Yellow      
    ## 10 C                 6        2       14547          2 10:1  Red         
    ## # ℹ 854 more rows
    ## # ℹ 2 more variables: Fraction <dbl>, Population <fct>
…
